3 Data wrangling part 2 – Introduction to R
…
# check dimensions, structure
dim(widedat)
str(widedat)

3.8 Summarize

The last tool we’re going to learn about in dplyr is the summarize function. As the name implies, this function lets you summarize columns in a dataset. Think of it as a way to condense rows using a summary method of your choice, e.g., what’s the average of the values in a column based on groups in another column?

We can use the summarize() function to get the total or average value by group. Note the use of the .by argument as a critical piece that defines the groups for summarizing. The mean function also uses the optional argument na.rm = T to remove missing values from the calculation, otherwise, the result will be NA.

by_sta <- summarize(wqdat, mean_val = mean(value, na.rm = T), .by = c(station_name, parametertype_name))
by_sta

# A tibble: 241 × 3
   station_name       parametertype_name         mean_val
   <chr>              <chr>                         <dbl>
 1 Lake Panasoffkee 7 Alkalinity (CaCO3)         133.    
 2 Lake Panasoffkee 7 Ammonia (N)                  0.0443
 3 Lake Panasoffkee 7 Arsenic                      6.22  
 4 Lake Panasoffkee 7 Bicarbonate (CaCO3)        132.    
 5 Lake Panasoffkee 7 Cadmium                      0.3   
 6 Lake Panasoffkee 7 Calcium                     58.9   
 7 Lake Panasoffkee 7 Carbon- Total Organic       12.5   
 8 Lake Panasoffkee 7 Chloride                    11.2   
 9 Lake Panasoffkee 7 Chlorophyll a- corrected    19.6   
10 Lake Panasoffkee 7 Chlorophyll a- uncorrected  20.6   
# ℹ 231 more rows

The below example is the same as the previous, except we’re also grouping by year, first by creating the Year variable using mutate() and the lubridate::year() function. The result is a summary of the average value by station, parameter, and year.

by_sta_yr <- wqdat |> 
  mutate(Year = lubridate::year(timestamp)) |> 
  summarize(mean_val = mean(value, na.rm = TRUE), .by = c(station_name, parametertype_name, Year))
by_sta_yr

# A tibble: 4,339 × 4
   station_name       parametertype_name  Year mean_val
   <chr>              <chr>              <dbl>    <dbl>
 1 Lake Panasoffkee 7 Alkalinity (CaCO3)  2000     80.8
 2 Lake Panasoffkee 7 Alkalinity (CaCO3)  2001    130. 
 3 Lake Panasoffkee 7 Alkalinity (CaCO3)  2002    132. 
 4 Lake Panasoffkee 7 Alkalinity (CaCO3)  2003    148. 
 5 Lake Panasoffkee 7 Alkalinity (CaCO3)  2004    141. 
 6 Lake Panasoffkee 7 Alkalinity (CaCO3)  2005    155. 
 7 Lake Panasoffkee 7 Alkalinity (CaCO3)  2006    109. 
 8 Lake Panasoffkee 7 Alkalinity (CaCO3)  2007    107. 
 9 Lake Panasoffkee 7 Alkalinity (CaCO3)  2008    146. 
10 Lake Panasoffkee 7 Alkalinity (CaCO3)  2009    128. 
# ℹ 4,329 more rows

We can also get more than one summary at a time. The summary function can use any function that operates on a vector. Some common examples include min(), max(), sd(), var(), median(), mean(), and n(). It’s usually good practice to include a summary of how many observations were in each group, so get used to including the n() function.

more_sums <- summarize(wqdat, 
    n = n(),
    min_val = min(value),
    max_val = max(value),
    mean_val = mean(value), 
    .by = c(station_name, parametertype_name)
  )
more_sums

# A tibble: 241 × 6
   station_name       parametertype_name             n min_val max_val mean_val
   <chr>              <chr>                      <int>   <dbl>   <dbl>    <dbl>
 1 Lake Panasoffkee 7 Alkalinity (CaCO3)           205   1     197     133.    
 2 Lake Panasoffkee 7 Ammonia (N)                  212   0.005   0.631   0.0443
 3 Lake Panasoffkee 7 Arsenic                      149   0.6    11.2     6.22  
 4 Lake Panasoffkee 7 Bicarbonate (CaCO3)            7  73.4   162     132.    
 5 Lake Panasoffkee 7 Cadmium                        4   0.3     0.3     0.3   
 6 Lake Panasoffkee 7 Calcium                      158  18.6   128      58.9   
 7 Lake Panasoffkee 7 Carbon- Total Organic        221   3.24   33.3    12.5   
 8 Lake Panasoffkee 7 Chloride                     215   6.74   16.5    11.2   
 9 Lake Panasoffkee 7 Chlorophyll a- corrected     174   1     118.     19.6   
10 Lake Panasoffkee 7 Chlorophyll a- uncorrected   146   1.41  116      20.6   
# ℹ 231 more rows
…
