5 Spatial data analysis – Introduction to R
…
stat_crop

Simple feature collection with 144 features and 3 fields
Geometry type: POINT
Dimension:     XY
Bounding box:  xmin: -82.5 ymin: 27.9 xmax: -82.4 ymax: 28
Geodetic CRS:  WGS 84
# A tibble: 144 × 4
   Date       Station Value       geometry
   <date>     <chr>   <dbl>    <POINT [°]>
 1 2020-01-01 A        9.57 (-82.45 27.95)
 2 2020-02-01 A        9.48 (-82.45 27.95)
 3 2020-03-01 A        9.67 (-82.45 27.95)
 4 2020-04-01 A       12.1  (-82.45 27.95)
 5 2020-05-01 A        9.62 (-82.45 27.95)
 6 2020-06-01 A        5.51 (-82.45 27.95)
 7 2020-07-01 A       11    (-82.45 27.95)
 8 2020-08-01 A        9.2  (-82.45 27.95)
 9 2020-09-01 A        9.35 (-82.45 27.95)
10 2020-10-01 A       10.4  (-82.45 27.95)
# ℹ 134 more rows
…
stat_int

Simple feature collection with 144 features and 4 fields
Geometry type: POINT
Dimension:     XY
Bounding box:  xmin: -82.5 ymin: 27.9 xmax: -82.4 ymax: 28
Geodetic CRS:  WGS 84
# A tibble: 144 × 5
   Date       Station Value AreaName      geometry
 * <date>     <chr>   <dbl> <chr>      <POINT [°]>
 1 2020-01-01 B        8.12 North Area  (-82.5 28)
 2 2020-02-01 B        7.85 North Area  (-82.5 28)
 3 2020-03-01 B        8.59 North Area  (-82.5 28)
 4 2020-04-01 B       11.5  North Area  (-82.5 28)
 5 2020-05-01 B        9.25 North Area  (-82.5 28)
 6 2020-06-01 B       17.0  North Area  (-82.5 28)
 7 2020-07-01 B        7.54 North Area  (-82.5 28)
 8 2020-08-01 B        6.7  North Area  (-82.5 28)
 9 2020-09-01 B       12.3  North Area  (-82.5 28)
10 2020-10-01 B       14.3  North Area  (-82.5 28)
# ℹ 134 more rows
…
